{
    "inputMessageMetadata": {
        "flowVariables": {
            "idEnfermedad": {
                "connectorName": "#_custom_mule_metadata_type_#",
                "typeId": "String"
            }
        }
    },
    "outputMessageMetadata": {},
    "id": "e31406a4-5f73-47e1-a4d9-b815cc7cd99c",
    "version": "5.2.0.0"
}